3ff0000000000000 4000000000000000 4014000000000000 4000000000000000 1 0
3ff0000000000000 4000000000000000 4010000000000000 4010000000000000 0 1
4010000000000000 4010000000000000 4014000000000000 4000000000000000 0 1
